{
  "dota.apikey": "YOUR_API_KEY",
  "database": {
    "dialect": "postgres",
    "host": "localhost",
    "port": 5432,
    "name": "YOUR_DB_NAME",
    "username": "USERNAME",
    "password": "PASSWORD"
  }
}
